{
    "name": "RtsCameraActions",
    "maps": [
        {
            "name": "RTS Camera",
            "id": "70061afd-1151-4884-bd1c-c92f72b6a536",
            "actions": [
                {
                    "name": "Movement",
                    "type": "Value",
                    "id": "242b1496-dc40-49be-94b4-91acbd110383",
                    "expectedControlType": "Vector2",
                    "processors": "",
                    "interactions": ""
                },
                {
                    "name": "Scroll",
                    "type": "Value",
                    "id": "ab365999-ea5d-4f0a-88a5-712110f3f2c1",
                    "expectedControlType": "Vector2",
                    "processors": "",
                    "interactions": ""
                },
                {
                    "name": "Drag",
                    "type": "Value",
                    "id": "9eadef3d-fcfe-42bc-82df-7a42ca69a55c",
                    "expectedControlType": "Button",
                    "processors": "",
                    "interactions": ""
                },
                {
                    "name": "Center On Target",
                    "type": "Button",
                    "id": "7782c59c-49bf-427a-8a0c-6af8315c115b",
                    "expectedControlType": "Button",
                    "processors": "",
                    "interactions": ""
                },
                {
                    "name": "Select Target",
                    "type": "Button",
                    "id": "fe757e96-e9bf-4724-95dd-cb4c5220c33b",
                    "expectedControlType": "Button",
                    "processors": "",
                    "interactions": "MultiTap"
                }
            ],
            "bindings": [
                {
                    "name": "WASD",
                    "id": "696f6538-a2cb-4de2-89c1-5d2ac431619e",
                    "path": "2DVector",
                    "interactions": "",
                    "processors": "",
                    "groups": "",
                    "action": "Movement",
                    "isComposite": true,
                    "isPartOfComposite": false
                },
                {
                    "name": "up",
                    "id": "6c18840d-5bc8-47c2-a388-427011fd01af",
                    "path": "<Keyboard>/w",
                    "interactions": "",
                    "processors": "",
                    "groups": "RTSCameraControlScheme;Keyboard&Mouse",
                    "action": "Movement",
                    "isComposite": false,
                    "isPartOfComposite": true
                },
                {
                    "name": "down",
                    "id": "54731cf0-7a74-4869-be67-10b5bd3f243d",
                    "path": "<Keyboard>/s",
                    "interactions": "",
                    "processors": "",
                    "groups": "RTSCameraControlScheme;Keyboard&Mouse",
                    "action": "Movement",
                    "isComposite": false,
                    "isPartOfComposite": true
                },
                {
                    "name": "left",
                    "id": "c186eeac-b151-4c48-a63e-42c21bb83e47",
                    "path": "<Keyboard>/a",
                    "interactions": "",
                    "processors": "",
                    "groups": "RTSCameraControlScheme;Keyboard&Mouse",
                    "action": "Movement",
                    "isComposite": false,
                    "isPartOfComposite": true
                },
                {
                    "name": "right",
                    "id": "b75bc4c1-43b3-4ad5-990b-598c7e910ed0",
                    "path": "<Keyboard>/d",
                    "interactions": "",
                    "processors": "",
                    "groups": "RTSCameraControlScheme;Keyboard&Mouse",
                    "action": "Movement",
                    "isComposite": false,
                    "isPartOfComposite": true
                },
                {
                    "name": "",
                    "id": "dfd4b4a8-3349-4890-966b-dc47bb351bc6",
                    "path": "<Mouse>/scroll",
                    "interactions": "",
                    "processors": "",
                    "groups": "RTSCameraControlScheme",
                    "action": "Scroll",
                    "isComposite": false,
                    "isPartOfComposite": false
                },
                {
                    "name": "",
                    "id": "81231f98-79ab-4b2d-8238-5e9e96117ead",
                    "path": "<Mouse>/middleButton",
                    "interactions": "",
                    "processors": "",
                    "groups": "RTSCameraControlScheme",
                    "action": "Drag",
                    "isComposite": false,
                    "isPartOfComposite": false
                },
                {
                    "name": "",
                    "id": "8e84af21-4493-4467-844d-2a5535b29fb8",
                    "path": "<Keyboard>/space",
                    "interactions": "Press",
                    "processors": "",
                    "groups": "RTSCameraControlScheme",
                    "action": "Center On Target",
                    "isComposite": false,
                    "isPartOfComposite": false
                },
                {
                    "name": "",
                    "id": "f3e30e44-c50b-4656-b211-dda70a8eab78",
                    "path": "<Mouse>/leftButton",
                    "interactions": "",
                    "processors": "",
                    "groups": "RTSCameraControlScheme",
                    "action": "Select Target",
                    "isComposite": false,
                    "isPartOfComposite": false
                }
            ]
        }
    ],
    "controlSchemes": [
        {
            "name": "Keyboard&Mouse",
            "bindingGroup": "Keyboard&Mouse",
            "devices": [
                {
                    "devicePath": "<Keyboard>",
                    "isOptional": false,
                    "isOR": false
                },
                {
                    "devicePath": "<Mouse>",
                    "isOptional": false,
                    "isOR": false
                }
            ]
        },
        {
            "name": "Gamepad",
            "bindingGroup": "Gamepad",
            "devices": [
                {
                    "devicePath": "<Gamepad>",
                    "isOptional": false,
                    "isOR": false
                }
            ]
        },
        {
            "name": "Touch",
            "bindingGroup": "Touch",
            "devices": [
                {
                    "devicePath": "<Touchscreen>",
                    "isOptional": false,
                    "isOR": false
                }
            ]
        },
        {
            "name": "Joystick",
            "bindingGroup": "Joystick",
            "devices": [
                {
                    "devicePath": "<Joystick>",
                    "isOptional": false,
                    "isOR": false
                }
            ]
        },
        {
            "name": "XR",
            "bindingGroup": "XR",
            "devices": [
                {
                    "devicePath": "<XRController>",
                    "isOptional": false,
                    "isOR": false
                }
            ]
        },
        {
            "name": "RTSCameraControlScheme",
            "bindingGroup": "RTSCameraControlScheme",
            "devices": [
                {
                    "devicePath": "<Keyboard>",
                    "isOptional": false,
                    "isOR": false
                },
                {
                    "devicePath": "<Mouse>",
                    "isOptional": false,
                    "isOR": false
                }
            ]
        }
    ]
}